<?xml version="1.0" encoding="utf-8"?>
<!-- Generator: Adobe Illustrator 25.4.1, SVG Export Plug-In . SVG Version: 6.00 Build 0)  -->
<svg version="1.1" id="圖層_1" xmlns="http://www.w3.org/2000/svg" xmlns:xlink="http://www.w3.org/1999/xlink" x="0px" y="0px"
	 viewBox="0 0 75 117" style="enable-background:new 0 0 75 117;" xml:space="preserve">
<style type="text/css">
	.st0{fill:#AEB2F4;}
	.st1{fill:#6FD450;}
	.st2{fill:#7DEA5D;}
	.st3{fill:#D7DAFF;}
	.st4{fill:#FFFFFF;}
	.st5{opacity:0.4;fill:#FFFFFF;}
</style>
<g>
	<g>
		<g>
			<g>
				<path class="st0" d="M48.3,12.2L71.7,94c0.9,3.2-0.3,7.1-3.8,10.7c-5.4,5.6-14.6,9.2-23.1,9.5c-2.7,0.1-5.3-0.1-7.7-0.7
					c-0.5-0.1-1-0.3-1.5-0.4c-4.1-1.3-6.6-3.7-7.4-6.6l0,0L4.7,24.6L48.3,12.2z"/>
			</g>
		</g>
		<g>
			<g>
				<path class="st1" d="M66.5,83.5l1.7,6c0.8,2.9-0.3,6.4-3.5,9.7c-6.4,6.7-19,10.3-28,8c-4.5-1.1-7.2-3.5-8.1-6.4l0,0l-1.7-6
					L66.5,83.5z"/>
				
					<ellipse transform="matrix(0.9614 -0.275 0.275 0.9614 -22.7172 16.2869)" class="st2" cx="46.7" cy="89.2" rx="20.6" ry="11.9"/>
			</g>
			<g>
				<path class="st1" d="M63.4,72.5l1.7,6c0.8,2.9-0.3,6.4-3.5,9.7c-6.4,6.7-19,10.3-28,8c-4.5-1.1-7.2-3.5-8.1-6.4l0,0l-1.7-6
					L63.4,72.5z"/>
				<path class="st2" d="M59.9,82.3c-6.4,6.7-19,10.2-28,8c-9-2.2-11.1-9.5-4.6-16.1s19-10.2,28-8C64.3,68.4,66.3,75.6,59.9,82.3z"
					/>
			</g>
			<g>
				<path class="st1" d="M60.2,61.5l1.7,6c0.8,2.9-0.3,6.4-3.5,9.7c-6.4,6.7-19,10.3-28,8c-4.5-1.1-7.2-3.5-8.1-6.4l0,0l-1.7-6
					L60.2,61.5z"/>
				<path class="st2" d="M56.7,71.3c-6.4,6.7-19,10.2-28,8c-9-2.2-11.1-9.5-4.6-16.1s19-10.2,28-8C61.1,57.4,63.2,64.6,56.7,71.3z"
					/>
			</g>
			<g>
				<path class="st1" d="M57.1,50.6l1.7,6c0.8,2.9-0.3,6.4-3.5,9.7c-6.4,6.7-19,10.3-28,8c-4.5-1.1-7.2-3.5-8.1-6.4l0,0l-1.7-6
					L57.1,50.6z"/>
				<path class="st2" d="M53.6,60.3c-6.4,6.7-19,10.2-28,8c-9-2.2-11.1-9.5-4.6-16.1c6.4-6.7,19-10.2,28-8
					C58,46.4,60,53.6,53.6,60.3z"/>
			</g>
			<g>
				<path class="st1" d="M53.9,39.6l1.7,6c0.8,2.9-0.3,6.4-3.5,9.7c-6.4,6.7-19,10.3-28,8c-4.5-1.1-7.2-3.5-8.1-6.4l0,0l-1.7-6
					L53.9,39.6z"/>
				
					<ellipse transform="matrix(0.9614 -0.275 0.275 0.9614 -11.126 11.1396)" class="st2" cx="34.2" cy="45.2" rx="20.6" ry="11.9"/>
			</g>
			<g>
				<path class="st1" d="M50.8,28.6l1.7,6c0.8,2.9-0.3,6.4-3.5,9.7c-6.4,6.7-19,10.3-28,8c-4.5-1.1-7.2-3.5-8.1-6.4l0,0l-1.7-6
					L50.8,28.6z"/>
				<path class="st2" d="M47.3,38.3c-6.4,6.7-19,10.2-28,8c-9-2.2-11.1-9.5-4.6-16.1s19-10.2,28-8S53.8,31.7,47.3,38.3z"/>
			</g>
		</g>
		<path class="st3" d="M44.4,22.9c-7.1,7.3-20.9,11.3-30.8,8.8C3.7,29.2,1.4,21.3,8.5,13.9c7.1-7.3,20.9-11.3,30.8-8.8
			C49.3,7.6,51.5,15.6,44.4,22.9z"/>
		<g>
			<path class="st0" d="M34.5,10.5l1.1,3.8c0.4,1.4-0.1,3.1-1.7,4.7c-3.1,3.2-9.1,4.9-13.4,3.8c-2.2-0.5-3.5-1.7-3.9-3.1l0,0
				l-1.1-3.8L34.5,10.5z"/>
			<path class="st4" d="M32.8,15.2c-3.1,3.2-9.1,4.9-13.4,3.8c-4.3-1.1-5.3-4.5-2.2-7.7c3.1-3.2,9.1-4.9,13.4-3.8
				C34.9,8.5,35.9,12,32.8,15.2z"/>
		</g>
	</g>
	<path class="st5" d="M21.3,32.4l23.4,81.8c-2.7,0.1-5.3-0.1-7.7-0.7c-0.5-0.1-1-0.3-1.5-0.4L12.2,31.3c0.5,0.2,1,0.3,1.5,0.4
		C16,32.3,18.6,32.5,21.3,32.4z"/>
</g>
</svg>
