<?xml version="1.0" encoding="utf-8"?>
<!-- Generator: Adobe Illustrator 25.4.1, SVG Export Plug-In . SVG Version: 6.00 Build 0)  -->
<svg version="1.1" id="圖層_1" xmlns="http://www.w3.org/2000/svg" xmlns:xlink="http://www.w3.org/1999/xlink" x="0px" y="0px"
	 viewBox="0 0 245 135" style="enable-background:new 0 0 245 135;" xml:space="preserve">
<style type="text/css">
	.st0{fill:url(#SVGID_1_);}
	.st1{fill:none;}
	.st2{fill:#FCEE21;}
	.st3{fill:url(#SVGID_00000141414838839721354210000014337226127833940361_);}
	.st4{fill:url(#SVGID_00000138544703556608007630000009013275054682273980_);}
	.st5{fill:url(#SVGID_00000127765792009745160480000004964038188349471909_);}
	.st6{fill:url(#SVGID_00000065769185069075561530000010707007774777959323_);}
	.st7{fill:url(#SVGID_00000132793780386462184960000012940840934825871288_);}
	.st8{fill:url(#SVGID_00000103261140099694395500000013741574632102598532_);}
	.st9{fill:url(#SVGID_00000181767674656664890520000009006676951432158388_);}
	.st10{fill:url(#SVGID_00000170263522202590754890000006096673549228067731_);}
	.st11{fill:url(#SVGID_00000171688599691001820370000013328510538206109365_);}
	.st12{fill:url(#SVGID_00000155106229348083423450000007187237174487400874_);}
	.st13{fill:url(#SVGID_00000049940526984526487750000006830891999960906149_);}
	.st14{fill:url(#SVGID_00000003099870212549099440000007862986376555635891_);}
	.st15{fill:url(#SVGID_00000178197016612753816270000016687857905558831232_);}
	.st16{fill:url(#SVGID_00000096781379836491910700000010073238498502128791_);}
	.st17{fill:url(#SVGID_00000034774046750307815330000003377804921808284570_);}
	.st18{fill:url(#SVGID_00000089552423926539783250000009677897990383620532_);}
	.st19{fill:url(#SVGID_00000120549992662463903050000000350779134071060865_);}
	.st20{fill:#FFFFFF;}
	.st21{fill:#FFAC0E;}
	.st22{fill:#F2930E;}
	.st23{fill:url(#SVGID_00000158746179376121824580000007139581390217532563_);}
	.st24{fill:url(#SVGID_00000113333999792409857240000009586887753945282483_);}
	.st25{fill:#FCB606;}
	.st26{opacity:0.6;fill:#FCCE17;}
	.st27{fill:#FCCE17;}
	.st28{fill:url(#SVGID_00000130649086609544775120000007089920958924562362_);}
</style>
<radialGradient id="SVGID_1_" cx="2285.4204" cy="6144.7754" r="90.5877" gradientTransform="matrix(-0.9936 0 0 0.2115 2411.2834 -1193.0785)" gradientUnits="userSpaceOnUse">
	<stop  offset="0" style="stop-color:#000000;stop-opacity:0.3"/>
	<stop  offset="1" style="stop-color:#000000;stop-opacity:0"/>
</radialGradient>
<ellipse class="st0" cx="140.5" cy="106.5" rx="90" ry="19.2"/>
<g>
	<path class="st20" d="M166.8,95.8c0,4.8,3.9,8.6,8.6,8.6c1.7,0,3.2-0.5,4.5-1.3c1.4,2.9,4.3,4.8,7.7,4.8c3.2,0,6-1.7,7.4-4.3
		c1.6,1.6,3.7,2.6,6.1,2.6c4.8,0,8.6-3.9,8.6-8.6c0-4.1-2.8-7.5-6.6-8.4c-0.2-3.7-3.3-6.7-7.1-6.7c-0.9,0-1.8,0.2-2.7,0.5
		c-1-1.4-2.6-2.4-4.4-2.4c-2,0-3.8,1.1-4.7,2.8c-0.8-0.5-1.8-0.8-2.8-0.8c-2.7,0-4.9,2-5.2,4.6c-0.3,0-0.6,0-0.9,0
		C170.6,87.2,166.8,91.1,166.8,95.8z"/>
	<g>
		<path class="st21" d="M97.5,85.8c24.7,18.7,58.4,6.1,69.3-15.6c10.6-19.3,6.3-47.6-14.7-61.4c3,4.9,6.4,11.2,7.2,15.1
			c0.1,0.6,0.2,1.2,0.3,1.7c5.4,22.7-10.9,57.4-42.8,61.7c-1.3,0.2-3.4,0.4-5,0.4C108,88,102.4,87.1,97.5,85.8z"/>
		<path class="st22" d="M97.5,85.8c4.3,6.7,10.2,12.2,16.5,16c14.3,8.8,32.7,9.8,48.4,2.2c0.2-0.1,0.4-0.2,0.5-0.3
			c0.6-0.3,1.2-0.6,1.7-0.9c0.2-0.1,0.4-0.2,0.6-0.3h0c0.7-0.4,1.4-0.8,2.1-1.3c0.2-0.1,0.3-0.2,0.5-0.3c0.1-0.1,0.2-0.2,0.4-0.2
			c0.2-0.1,0.3-0.2,0.5-0.3c0.5-0.3,1-0.7,1.5-1c0,0,0.1-0.1,0.1-0.1c0.2-0.1,0.3-0.2,0.5-0.3c0.1-0.1,0.3-0.2,0.5-0.3
			c0.7-0.5,1.4-1.1,2.1-1.7c0.1-0.1,0.3-0.2,0.4-0.4c9.7-8.3,16-21.3,17-31.7c0-0.1,0-0.1,0-0.2c2.1-15.7-3.5-32.9-17-44.7
			c0,0,0,0-0.1-0.1c-3.4-2.9-7.1-5.5-11.3-7.4c-2.8-1.4-6.9-2.8-9.1-3.4c-0.4-0.1-0.7-0.2-1.1-0.3c27.6,19.4,26.7,61.4-2.3,78.9
			c-0.1,0.1-0.2,0.1-0.3,0.2c-0.5,0.3-0.9,0.6-1.4,0.8C129.9,98.2,111.1,95.6,97.5,85.8z"/>
	</g>
	<path class="st20" d="M108.5,114.2c0,0.2,0,0.4,0,0.6c0,3.4,2.8,6.2,6.2,6.2c2,0,3.9-1,5-2.5c1.7,2.8,4.8,4.7,8.4,4.7
		c3.1,0,5.9-1.5,7.7-3.7c1,1.3,2.6,2.1,4.4,2.1c3.1,0,5.7-2.6,5.7-5.7c0-0.8-0.1-1.5-0.4-2.1c0.8,0.8,1.9,1.4,3.2,1.4
		c2.4,0,4.4-2,4.4-4.4c0-2.4-2-4.4-4.4-4.4c-0.7,0-1.4,0.2-2.1,0.5c0.8-1.1,1.3-2.4,1.3-3.9c0-3.6-3-6.6-6.6-6.6
		c-1.3,0-2.5,0.4-3.5,1c0-0.1,0-0.1,0-0.2c0-4.6-3.8-8.4-8.4-8.4c-2.7,0-5.1,1.3-6.6,3.3c-1.2-0.7-2.6-1.1-4.1-1.1
		c-4.6,0-8.4,3.8-8.4,8.4c0,0.4,0,0.8,0.1,1.2c-0.1,0-0.2,0-0.3,0c-3.8,0-7,3.1-7,7C103.1,110.8,105.4,113.5,108.5,114.2z"/>
	<path class="st20" d="M115.8,63.2c-0.1-0.3-0.2-0.6-0.2-0.9c-0.5-3.9,2.2-7.5,6.1-8.1c2.2-0.3,4.3,0.4,5.8,1.8
		c0.7-1.7,2.3-3.1,4.4-3.3c2.5-0.3,4.8,1,5.8,3.1c0.3-0.1,0.5-0.1,0.8-0.2c2.8-0.4,5.5,1.1,6.7,3.6c4.7-0.4,8.9,2.9,9.5,7.6
		c0.7,4.8-2.7,9.3-7.6,10c-1.4,0.2-2.7,0-3.9-0.4c-0.9,3.3-3.7,5.9-7.3,6.4c-4.2,0.6-8-1.9-9.5-5.6c-1.3,1.3-3,2.2-5,2.5
		c-4.8,0.7-9.3-2.7-10-7.6C110.8,68.4,112.7,65,115.8,63.2z"/>
</g>
<g>
	
		<linearGradient id="SVGID_00000062175569238699300480000002567417249949616030_" gradientUnits="userSpaceOnUse" x1="-20.5905" y1="105.3497" x2="177.3567" y2="7.0882">
		<stop  offset="0" style="stop-color:#183785"/>
		<stop  offset="0.5657" style="stop-color:#29ABE2"/>
		<stop  offset="0.995" style="stop-color:#183785"/>
	</linearGradient>
	<path style="fill:url(#SVGID_00000062175569238699300480000002567417249949616030_);" d="M140.3,28c-1.8-2.3-4.5-3.6-7.4-3.6h-11.5
		c-1.8-1.9-4.3-3-6.9-3h-6.7c-2.7,0-5.2,1.1-6.9,3c-0.2,0-0.3,0-0.5,0H84.2c-2.1,0-4.2,0.7-5.8,2c-0.5-0.1-1-0.1-1.5-0.1H65.2
		c-0.9-1.8-2.3-3.3-4.1-4.3c-2.2-1.2-4.8-1.4-7.2-0.7l-7.8,2.4c-1.6,0.5-3,1.4-4.1,2.6H29.6c-4.3,0-8.1,2.9-9.1,7.1l-1.8,7.1
		c-0.7,2.8-0.1,5.7,1.6,8c-1.3,1.1-2.7,2.1-4,3c-2.3,1.5-3.9,4-4.2,6.8c-0.3,2.8,0.6,5.6,2.5,7.6c0.6,0.6,2.1,2.8,2.5,3.8
		c0.1,0.2,0.2,0.3,0.3,0.5l-2.1,8.4c-0.7,2.8-0.1,5.8,1.7,8.1c1.8,2.3,4.5,3.6,7.4,3.6H32c1,0,1.9-0.1,2.8-0.4c1.9,0.6,4,0.6,5.9,0
		c3.4-1.1,6.7-2.5,9.8-4.2c2.5,1.6,5.3,3,8.4,4.1c1,0.4,2.1,0.6,3.2,0.6c2.8,0,5.6-1.3,7.4-3.6c0.2-0.3,0.5-0.6,0.8-0.9
		c1.7,0.6,3.5,0.8,5.3,0.4l3.5-0.7c1-0.2,2-0.4,3.1-0.6c1,2.2,2.8,3.9,5,4.8c1.1,0.5,2.3,0.7,3.5,0.7c1.5,0,3-0.4,4.4-1.1
		c0.7-0.4,1.4-0.8,2-1.1c1.1,0.4,2.2,0.6,3.4,0.6h21.8c4.3,0,8.1-2.9,9.1-7.1l1.8-7c0.7-2.7,0.1-5.6-1.5-7.8c1.7-1.3,3-3.1,3.6-5.3
		l1.7-6.8c0.5-2,0.3-4.1-0.5-6c1.9-1.3,3.3-3.2,3.8-5.5l1.7-6.9C142.7,33.3,142.1,30.3,140.3,28z"/>
	<g>
		<g>
			<path class="st20" d="M73.1,48.6c-4.1,8.3-9.2,15-15,20.3c2.9,2.2,6.5,3.9,10.8,5.1c-2.1,1.6-5.2,4.8-6.8,6.8
				c-4.4-1.6-8-3.8-10.8-6.6c-4.3,2.8-8.9,5-13.6,6.6c-0.4-1.8-2-5-3.2-6.4c4.5-1.3,8.8-3.2,12.7-5.5c-1.3-2.1-2.3-4.4-3.1-6.9
				c-1,0.7-1.9,1.5-2.9,2.1c-0.8-1.5-2.5-3.9-3.8-5.2L32,80.7h-7.5L29,62.5c-1.2,1-2.3,1.9-3.5,2.7c-0.8-1.5-2.8-4.6-4.1-6
				c5.9-3.8,12.2-10.1,16.6-16.5H27.8l1.8-7.1h19.9c-0.2-1-0.4-2.1-0.7-3l7.8-2.4c0.5,1.6,1.1,3.7,1.5,5.4h18.8l-1.8,7.1H56.3
				l4.2,1.2c-0.6,0.9-1.2,1.8-1.9,2.7h8.8l1.3-0.3L73.1,48.6z M37.4,58.8c6.1-3.8,12-10.5,15.5-16H40.8l4.7,1.5
				c-1.9,2.8-4.1,5.7-6.5,8.4L37.4,58.8z M53.3,53.2c-1.1,1.3-2.2,2.5-3.4,3.7c0.8,2.7,2,5.1,3.7,7.4c3.5-3,6.7-6.7,9.4-11H53.3z
				 M54,61.6c-0.5-1.3-1.9-3.3-3.1-4.7l5.4-3.6c1.3,1.2,2.9,3,3.5,4.3L54,61.6z"/>
			<path class="st20" d="M37.5,81.1l-0.1-0.3c-0.4-1.9-2-5-3.1-6.2L34,74.3l0.4-0.1c4.4-1.3,8.6-3.1,12.4-5.3c-1.1-1.9-2-4-2.8-6.4
				c-0.9,0.7-1.8,1.3-2.6,1.9l-0.2,0.2L41,64.3c-0.8-1.4-2.3-3.5-3.4-4.8L32.1,81h-8l4.4-17.7c-1.1,0.9-2,1.6-2.9,2.3l-0.2,0.2
				l-0.1-0.3c-0.7-1.4-2.7-4.5-4-5.9L21,59.2l0.3-0.2c5.8-3.8,11.9-9.8,16.3-16.1H27.5l1.9-7.6h19.8c-0.2-0.9-0.4-1.9-0.6-2.7
				l-0.1-0.2l8.3-2.6l0.4,1.2c0.4,1.4,0.9,2.9,1.2,4.3h18.9L75.3,43H58.1l2.8,0.8l-0.2,0.3c-0.5,0.8-1.1,1.5-1.6,2.3h8.3l1.4-0.3
				l4.6,2.4l-0.1,0.2c-3.9,7.9-8.9,14.7-14.9,20.1c2.9,2.1,6.4,3.8,10.4,4.9l0.5,0.1L69,74.1c-2.1,1.6-5.2,4.8-6.8,6.8l-0.1,0.1
				L61.9,81c-4.3-1.6-7.9-3.8-10.7-6.5c-4.2,2.7-8.7,4.9-13.5,6.5L37.5,81.1z M51.3,73.8l0.1,0.1c2.7,2.8,6.3,4.9,10.5,6.5
				c1.5-1.9,4.3-4.8,6.3-6.4c-4-1.1-7.5-2.8-10.4-5l-0.2-0.2l0.2-0.2c6-5.4,11-12.1,14.9-20l-4-2.1l-1.2,0.2l-9.3,0l0.3-0.4
				c0.6-0.8,1.1-1.6,1.7-2.4l-5.6-1.6h20.4l1.6-6.6H58l0-0.2c-0.3-1.4-0.8-3-1.3-4.5l-0.2-0.7l-7.3,2.3c0.2,0.8,0.4,1.8,0.6,2.8
				l0.1,0.3l-0.3,0H29.8l-1.6,6.6h10.4l-0.3,0.4c-4.4,6.4-10.5,12.6-16.4,16.5c1.3,1.4,3,4.1,3.8,5.6c1-0.7,2-1.5,3.2-2.5l0.6-0.5
				l-4.6,18.6h7l7-28c2.4-2.8,4.6-5.5,6.3-8.1l-5.8-1.9h14.2l-0.2,0.4c-3,4.8-8.9,11.8-15.5,16c1.2,1.3,2.7,3.4,3.6,4.9
				c0.9-0.6,1.8-1.3,2.6-1.9l0.3-0.2l0.1,0.3c0.8,2.6,1.8,4.8,3,6.8l0.1,0.2l-0.2,0.1c-3.8,2.2-7.9,4-12.3,5.4
				c1.1,1.4,2.4,4.1,2.9,5.9c4.7-1.6,9.2-3.8,13.3-6.5L51.3,73.8z M39.2,52.8l-1.4,5.4C44,54.1,49.4,47.6,52.5,43H42.4l3.5,1.1
				l-0.2,0.3C43.9,47,41.7,49.9,39.2,52.8z M53.5,64.6l-0.2-0.2c-1.6-2.2-2.9-4.7-3.7-7.4l0-0.1l0.1-0.1c1.3-1.3,2.4-2.5,3.4-3.7
				l0.1-0.1h10.2l-0.2,0.4c-2.6,4.2-5.8,7.9-9.4,11.1L53.5,64.6z M50.1,57c0.8,2.5,1.9,4.9,3.4,6.9c1.8-1.6,3.5-3.3,5.1-5.2L53.9,62
				l-0.1-0.3c-0.5-1.3-1.9-3.3-3.1-4.6l-0.2-0.2l5.1-3.4h-2.2C52.4,54.6,51.4,55.7,50.1,57z M51.3,57c1.1,1.2,2.3,3,2.9,4.2l5.3-3.6
				c-0.6-1.2-2.1-2.8-3.2-3.9L51.3,57z M56.8,53.5c1.1,1.1,2.4,2.6,3.1,3.8c0.9-1.2,1.8-2.5,2.6-3.8H56.8z"/>
		</g>
		<g>
			<path class="st20" d="M90.5,73.2c-5.7,1.3-11.9,2.6-16.9,3.6l0.5-7c1.7-0.3,3.7-0.6,5.8-1l2.8-11.1h-4l1.7-6.8h4l2.6-10.3h-4.5
				l1.7-6.9h16.1l-1.7,6.9h-4.7L91.3,51h3.5l-1.7,6.8h-3.5l-2.4,9.7l4.3-0.8L90.5,73.2z M108.7,53.9c-2.7,10.9-6.5,20.7-18,26.8
				c-0.5-1.6-2.1-4.3-3.3-5.5c8.5-4.4,11.8-11.1,13.9-18.7l-2.9,1.2c-0.3-3.5-1.5-9-2.7-13.1l6.1-2.2c0.6,1.8,1.2,3.8,1.7,5.8
				l4.3-17.4h6.7L108.7,53.9z M124,72.1l-1.8,7h-21.8l1.8-7h9l3.3-13.1h-5.7l1.7-6.8h5.7l2.9-11.5h-6.2l1.7-6.9h18.2l-1.7,6.9h-4.8
				l-2.9,11.5h4.3l-1.7,6.8h-4.3l-3.3,13.1H124z"/>
			<path class="st20" d="M90.5,81.1l-0.1-0.3c-0.5-1.7-2.1-4.3-3.2-5.4l-0.2-0.2l0.3-0.2c0.8-0.4,1.6-0.9,2.3-1.3
				c-4.2,0.9-8.6,1.9-12.5,2.7l-3.7,0.8l0.5-7.6l0.2,0c1.6-0.2,3.6-0.6,5.6-1L82.4,58h-4l1.8-7.3h4l2.4-9.8h-4.5l1.8-7.4h16.6
				l-1.8,7.4h-4.7l-2.4,9.8h3.5L93.3,58h-3.5l-2.3,9.1l4.2-0.8l-0.9,6.6c5.9-4.3,8.4-10.1,10-15.9l-2.8,1.1l0-0.3
				c-0.3-3.6-1.6-9.1-2.7-13.1l-0.1-0.2l6.5-2.3l0.1,0.2c0.5,1.5,1,3.2,1.4,4.8l4.2-16.7h7.2L108.9,54c-2.5,10.1-6,20.5-18.2,27
				L90.5,81.1z M87.8,75.4c1.1,1.2,2.4,3.4,3,5c11.8-6.4,15.2-16.6,17.7-26.5l0.2,0.1l-0.2-0.1l5.7-22.8h-6.2l-4.5,18.2l-0.2-1
				c-0.5-1.9-1-3.8-1.6-5.5l-5.6,2c1.1,3.8,2.2,9,2.6,12.6l3.1-1.3l-0.1,0.5C99.5,63.6,96.5,70.7,87.8,75.4z M74.3,70l-0.5,6.5
				l3.1-0.6c4.2-0.9,8.9-1.9,13.4-2.9l0.9-6.2l-4.3,0.8l2.6-10.2h3.5l1.6-6.3H91l2.7-10.8h4.7l1.6-6.4H84.4l-1.6,6.4h4.5l-2.7,10.8
				h-4L79,57.5h4L80.1,69l-0.2,0C77.9,69.5,76,69.8,74.3,70z M122.5,79.4h-22.3l1.9-7.5h9l3.1-12.6h-5.7l1.8-7.3h5.7l2.7-11h-6.2
				l1.8-7.4h18.7l-1.8,7.4h-4.8l-2.7,11h4.3l-1.8,7.3H122l-3.1,12.6h5.5L122.5,79.4z M100.8,78.9h21.3l1.6-6.5h-5.5l3.4-13.6h4.3
				l1.6-6.3h-4.3l3-12h4.8l1.6-6.4h-17.7l-1.6,6.4h6.2l-3,12h-5.7l-1.6,6.3h5.7l-3.4,13.6h-9L100.8,78.9z"/>
		</g>
	</g>
</g>
</svg>
