<?xml version="1.0" encoding="utf-8"?>
<!-- Generator: Adobe Illustrator 25.4.1, SVG Export Plug-In . SVG Version: 6.00 Build 0)  -->
<svg version="1.1" id="圖層_1" xmlns="http://www.w3.org/2000/svg" xmlns:xlink="http://www.w3.org/1999/xlink" x="0px" y="0px"
	 viewBox="0 0 560 100" style="enable-background:new 0 0 560 100;" xml:space="preserve">
<style type="text/css">
	.st0{fill:url(#SVGID_1_);}
	.st1{fill:url(#SVGID_00000043453773236835174590000001260662708320870279_);}
	.st2{fill:url(#SVGID_00000124125530964188963900000006768740890867875984_);}
	.st3{fill:url(#SVGID_00000166642196757114794950000006453617553124020387_);}
	.st4{fill:url(#SVGID_00000077325760746888061400000009860348165530898828_);}
	.st5{fill:url(#SVGID_00000028291123234687929610000009182106507853588106_);}
	.st6{fill:url(#SVGID_00000034786707358693201370000010903929252449080741_);}
	.st7{fill:url(#SVGID_00000013160184740589278450000006424584875751476621_);}
	.st8{fill:url(#SVGID_00000021833932542363490440000000976162451614630813_);}
	.st9{fill:url(#SVGID_00000012460897242235638410000016413317485913820323_);}
	.st10{fill:url(#SVGID_00000095323124787294512820000012214679037959560101_);}
	.st11{fill:url(#SVGID_00000160896856080151593050000009401977014587802016_);}
	.st12{fill:url(#SVGID_00000063592292241420865690000015307747136241811842_);}
	.st13{fill:url(#SVGID_00000111881379998525926330000011134151441340988322_);}
	.st14{fill:url(#SVGID_00000142885545085953444140000004414636898494915975_);}
	.st15{fill:url(#SVGID_00000026842149244326247710000000652437057783712681_);}
	.st16{fill:#183785;}
	.st17{fill:#FFCFAF;}
	.st18{fill:#FFFFFF;}
	.st19{fill:#FFA50A;}
	.st20{fill:#FCEE21;}
</style>
<g>
	<linearGradient id="SVGID_1_" gradientUnits="userSpaceOnUse" x1="-0.4499" y1="111.5549" x2="527.1498" y2="-82.8973">
		<stop  offset="0" style="stop-color:#183785"/>
		<stop  offset="0.5657" style="stop-color:#29ABE2"/>
		<stop  offset="0.995" style="stop-color:#183785"/>
	</linearGradient>
	<path class="st0" d="M145.6,57.9c0.1,0,0.1,0,0.2,0c0.2,0.1,0.3,0.1,0.5,0.2c-0.2-0.3-0.4-0.7-0.6-1.1V57.9z"/>
	
		<linearGradient id="SVGID_00000015327827109118941860000007868777093714646186_" gradientUnits="userSpaceOnUse" x1="29.1874" y1="191.9688" x2="556.7871" y2="-2.4834">
		<stop  offset="0" style="stop-color:#183785"/>
		<stop  offset="0.5657" style="stop-color:#29ABE2"/>
		<stop  offset="0.995" style="stop-color:#183785"/>
	</linearGradient>
	<path style="fill:url(#SVGID_00000015327827109118941860000007868777093714646186_);" d="M459.7,28.9c-1,2.6-1.9,5.3-2.7,7.1
		l-2.6-1v2.7h5.4V28.9z"/>
	
		<linearGradient id="SVGID_00000016760502049179092030000008216473397569568920_" gradientUnits="userSpaceOnUse" x1="26.9242" y1="185.8279" x2="554.5238" y2="-8.6243">
		<stop  offset="0" style="stop-color:#183785"/>
		<stop  offset="0.5657" style="stop-color:#29ABE2"/>
		<stop  offset="0.995" style="stop-color:#183785"/>
	</linearGradient>
	<path style="fill:url(#SVGID_00000016760502049179092030000008216473397569568920_);" d="M444.6,26.8l2.9-0.9
		c0.9,2.8,1.7,6.6,1.9,8.9l-3.2,1.1c-0.1-2.4-0.7-5.9-1.6-8.7v10.5h5.2V24.2h-5.2V26.8z"/>
	
		<linearGradient id="SVGID_00000114781233959162307310000014524532799358897598_" gradientUnits="userSpaceOnUse" x1="4.1484" y1="124.0313" x2="531.7481" y2="-70.4209">
		<stop  offset="0" style="stop-color:#183785"/>
		<stop  offset="0.5657" style="stop-color:#29ABE2"/>
		<stop  offset="0.995" style="stop-color:#183785"/>
	</linearGradient>
	<rect x="246.5" y="32" style="fill:url(#SVGID_00000114781233959162307310000014524532799358897598_);" width="6.1" height="3.1"/>
	
		<linearGradient id="SVGID_00000165913726471177095680000002003471762440609163_" gradientUnits="userSpaceOnUse" x1="3.0907" y1="121.1614" x2="530.6904" y2="-73.2908">
		<stop  offset="0" style="stop-color:#183785"/>
		<stop  offset="0.5657" style="stop-color:#29ABE2"/>
		<stop  offset="0.995" style="stop-color:#183785"/>
	</linearGradient>
	
		<rect x="258.7" y="24.2" style="fill:url(#SVGID_00000165913726471177095680000002003471762440609163_);" width="6.4" height="3.1"/>
	
		<linearGradient id="SVGID_00000137827589023538624340000013316893004899270559_" gradientUnits="userSpaceOnUse" x1="-5.6257" y1="97.5116" x2="521.974" y2="-96.9406">
		<stop  offset="0" style="stop-color:#183785"/>
		<stop  offset="0.5657" style="stop-color:#29ABE2"/>
		<stop  offset="0.995" style="stop-color:#183785"/>
	</linearGradient>
	<rect x="103.4" y="51" style="fill:url(#SVGID_00000137827589023538624340000013316893004899270559_);" width="27" height="2.7"/>
	
		<linearGradient id="SVGID_00000081613446817454619360000010292571366145467787_" gradientUnits="userSpaceOnUse" x1="-3.3768" y1="103.6134" x2="524.2228" y2="-90.8388">
		<stop  offset="0" style="stop-color:#183785"/>
		<stop  offset="0.5657" style="stop-color:#29ABE2"/>
		<stop  offset="0.995" style="stop-color:#183785"/>
	</linearGradient>
	
		<rect x="103.4" y="57.9" style="fill:url(#SVGID_00000081613446817454619360000010292571366145467787_);" width="27" height="2.8"/>
	
		<linearGradient id="SVGID_00000103233372637933258060000016790007945464546221_" gradientUnits="userSpaceOnUse" x1="10.706" y1="141.8237" x2="538.3057" y2="-52.6285">
		<stop  offset="0" style="stop-color:#183785"/>
		<stop  offset="0.5657" style="stop-color:#29ABE2"/>
		<stop  offset="0.995" style="stop-color:#183785"/>
	</linearGradient>
	<path style="fill:url(#SVGID_00000103233372637933258060000016790007945464546221_);" d="M321.7,28h-14.9c-0.7,0.6-1.5,1.1-2.3,1.6
		c3.1,1.6,6.6,3.7,8.6,5.4C316.4,33,319.3,30.7,321.7,28z"/>
	
		<linearGradient id="SVGID_00000156565597037562290650000012759991910673423280_" gradientUnits="userSpaceOnUse" x1="40.2438" y1="221.9676" x2="567.8435" y2="27.5154">
		<stop  offset="0" style="stop-color:#183785"/>
		<stop  offset="0.5657" style="stop-color:#29ABE2"/>
		<stop  offset="0.995" style="stop-color:#183785"/>
	</linearGradient>
	
		<rect x="474.4" y="53.3" style="fill:url(#SVGID_00000156565597037562290650000012759991910673423280_);" width="11.6" height="13"/>
	
		<linearGradient id="SVGID_00000181786966134955505920000005487557412692317323_" gradientUnits="userSpaceOnUse" x1="27.2386" y1="186.6811" x2="554.8383" y2="-7.7711">
		<stop  offset="0" style="stop-color:#183785"/>
		<stop  offset="0.5657" style="stop-color:#29ABE2"/>
		<stop  offset="0.995" style="stop-color:#183785"/>
	</linearGradient>
	<path style="fill:url(#SVGID_00000181786966134955505920000005487557412692317323_);" d="M459.7,26.9v-2.7h-5.4v10.2
		c0.9-2.4,1.9-6.1,2.4-8.6L459.7,26.9z"/>
	
		<linearGradient id="SVGID_00000065034476196558461370000006226335760733982873_" gradientUnits="userSpaceOnUse" x1="19.3538" y1="165.2875" x2="546.9534" y2="-29.1647">
		<stop  offset="0" style="stop-color:#183785"/>
		<stop  offset="0.5657" style="stop-color:#29ABE2"/>
		<stop  offset="0.995" style="stop-color:#183785"/>
	</linearGradient>
	<path style="fill:url(#SVGID_00000065034476196558461370000006226335760733982873_);" d="M312.4,52.8c3.4,1.9,7.1,4.3,9.4,6.4
		c3.5-2.3,6.4-5.1,8.6-8.5h-14.7C314.7,51.4,313.6,52.1,312.4,52.8z"/>
	
		<linearGradient id="SVGID_00000066508872684214098820000013112815087540225415_" gradientUnits="userSpaceOnUse" x1="5.6232" y1="128.0327" x2="533.2228" y2="-66.4195">
		<stop  offset="0" style="stop-color:#183785"/>
		<stop  offset="0.5657" style="stop-color:#29ABE2"/>
		<stop  offset="0.995" style="stop-color:#183785"/>
	</linearGradient>
	<rect x="258.7" y="32" style="fill:url(#SVGID_00000066508872684214098820000013112815087540225415_);" width="6.4" height="3.1"/>
	
		<linearGradient id="SVGID_00000104682415059658568790000017163934277004917934_" gradientUnits="userSpaceOnUse" x1="1.6159" y1="117.16" x2="529.2156" y2="-77.2922">
		<stop  offset="0" style="stop-color:#183785"/>
		<stop  offset="0.5657" style="stop-color:#29ABE2"/>
		<stop  offset="0.995" style="stop-color:#183785"/>
	</linearGradient>
	
		<rect x="246.5" y="24.2" style="fill:url(#SVGID_00000104682415059658568790000017163934277004917934_);" width="6.1" height="3.1"/>
	
		<linearGradient id="SVGID_00000036965839819614614850000007920310857552819117_" gradientUnits="userSpaceOnUse" x1="-7.8543" y1="91.4648" x2="519.7454" y2="-102.9874">
		<stop  offset="0" style="stop-color:#183785"/>
		<stop  offset="0.5657" style="stop-color:#29ABE2"/>
		<stop  offset="0.995" style="stop-color:#183785"/>
	</linearGradient>
	
		<rect x="103.4" y="44.1" style="fill:url(#SVGID_00000036965839819614614850000007920310857552819117_);" width="27" height="2.7"/>
	
		<linearGradient id="SVGID_00000119115074685937754680000017044414822114014343_" gradientUnits="userSpaceOnUse" x1="9.5594" y1="138.7127" x2="537.1591" y2="-55.7395">
		<stop  offset="0" style="stop-color:#183785"/>
		<stop  offset="0.5657" style="stop-color:#29ABE2"/>
		<stop  offset="0.995" style="stop-color:#183785"/>
	</linearGradient>
	<path style="fill:url(#SVGID_00000119115074685937754680000017044414822114014343_);" d="M496.9,76.2c0.1-0.8,0.4-1.5,0.8-2.1
		c-0.8-1-1.2-2.1-1.4-3.2c-0.1-0.8-0.1-1.7,0-2.5c0.2-0.8,0.5-1.6,0.9-2.3c0.4-0.5,0.8-1,1.3-1.5c-1.3-1.6-1.8-3.3-1.6-5
		c0.1-0.8,0.3-1.6,0.7-2.4c0.4-0.7,0.9-1.4,1.5-2c1-0.9,2.3-1.5,3.8-1.8c-0.4-1-0.5-1.9-0.4-2.9c0.1-0.8,0.3-1.6,0.7-2.4
		c0.1-0.1,0.1-0.2,0.2-0.3v-4.7c0-1.2-0.2-2.4-0.6-3.5c1.6-1.9,2.5-4.3,2.5-7v-5.2c0-6.1-4.9-11-11-11h-1.4
		c-0.8-5.3-5.4-9.4-10.9-9.4h-5.5c-2.4,0-4.5,0.7-6.3,2c-1.3-0.6-2.8-0.9-4.4-0.9h-24.5c-6.1,0-11,4.9-11,11v21.8
		c0,0.5,0,1.1,0.1,1.6c-0.1,0.6-0.2,1.3-0.2,1.9v3.2c-0.3,0.6-0.6,1.2-0.8,1.8V21.1c0-3.4-1.6-6.6-4.3-8.7c-2.7-2.1-6.2-2.8-9.5-1.9
		l-17.8,4.7c-4.8,1.3-8.2,5.6-8.2,10.6V32c0,3.4,1.6,6.7,4.3,8.7c1.8,1.4,4,2.2,6.3,2.3v9.3c-1.8,0.1-3.5,0.6-4.9,1.5
		c0.1-0.5,0.1-1,0.1-1.5v-5.2c0-6.1-4.9-11-11-11h-2.1V34c0-6.1-4.9-11-11-11h-5.2c-6.1,0-11,4.9-11,11v2.1h-2.1
		c-2.3,0-4.4,0.7-6.2,1.9c-1.6-2.3-4.2-3.9-7.1-4.4c1.3-1.9,2.1-4.1,2.1-6.4v-4.9c0-6.1-4.9-11-11-11h-11.9c-1-0.9-2.2-1.6-3.5-2.1
		l-5.2-2c-4-1.6-8.6-0.6-11.7,2.5c-4.5,4.5-10.5,8.2-18,11.2c-0.1,0-0.1,0-0.1,0.1v-2.1c0-6.1-4.9-11-11-11h-31.1
		c-2.3,0-4.5,0.7-6.2,1.9c-0.9-0.6-1.8-1.2-2.7-1.8c-4.5-2.8-10.3-2-13.9,1.9l-3.7,4.1c-0.1,0.2-0.3,0.3-0.4,0.5
		c-1.4-0.7-3-1.1-4.7-1.1h-6c-1.8-3.7-5.6-6.3-9.9-6.3h-5.5c-3.8,0-7.1,1.9-9.1,4.8c-0.8-0.8-1.8-1.5-2.8-2l-5.1-2.4
		c-5-2.4-11-0.7-14,4c-1.1,1.7-2.2,3.1-3.3,4.5c-1.9-3.4-5.5-5.7-9.7-5.7h-15.2c-0.9-0.7-1.9-1.2-3.1-1.6l-5.1-1.7
		c-4-1.4-8.3-0.3-11.2,2.5c-0.4-0.1-0.9-0.1-1.4-0.1H88.8c-3,0-5.6,1.2-7.6,3.1c-1.4-0.7-3-1.1-4.7-1.1h-4.3c-2-2.7-5.2-4.5-8.8-4.5
		h-5.4c-3.2,0-6,1.3-8,3.5c-2-2-4.8-3.3-7.9-3.3h-5.5c-3.6,0-6.7,1.7-8.7,4.3h-5.7c-6.1,0-11,4.9-11,11V27c0,2.3,0.7,4.4,1.8,6.1
		c-0.1,0.4-0.1,0.9-0.1,1.3v4.8c0,0.8,0.1,1.6,0.3,2.4c-0.3,1-0.4,2-0.4,3v2.9c-0.9,1.6-1.4,3.4-1.4,5.3v4.9c0,1.9,0.5,3.7,1.3,5.2
		c-1.1,1.9-1.6,4.2-1.5,6.4c0.3,3.1,1.8,6,4.3,7.9l4.1,3.1c2.9,2.2,6.6,2.8,9.8,1.8c1.6,0.9,3.4,1.4,5.4,1.4h5.4
		c2.5,0,4.7-0.8,6.6-2.2l1.8,1.1c1.8,1,3.7,1.5,5.6,1.5c2.2,0,4.4-0.7,6.2-1.9c1.6,0.9,3.4,1.4,5.4,1.4h5.4c4,0,7.4-2.1,9.3-5.2
		c2.2,4.1,6.8,6.3,11.4,5.5c8.2-1.3,15.5-3.4,21.9-6.1c1.6,1.4,3.7,2.3,5.9,2.6c6,0.7,11.5,1.8,16.2,3.4c1.1,0.4,2.2,0.5,3.4,0.5
		c3.7,0,7.3-1.9,9.3-5.2l1.3-2c1.8,3.6,5.5,6.1,9.8,6.1h5.8c5,0,9.2-3.4,10.6-7.9c0.7,0.4,1.4,0.8,2.1,1.1c1.6,4.1,5.4,6.8,9.8,7
		c3.6,0.1,4.9,0.2,5.6,0.2c5.8,0,10.4-1.6,13.7-4.7c0.7-0.7,1.4-1.5,2.1-2.6c0.6,0.9,1.4,1.6,2.2,2.3l4.5,3.4c2,1.5,4.3,2.2,6.6,2.2
		c3.1,0,6.1-1.3,8.2-3.7c3.2,1.2,6.5,2,9.7,2.3c2.8,0.3,7.5,0.4,14.8,0.4c5.1,0,10.6,0,16.6-0.1c3.1,0,6-1.4,8.1-3.7
		c2,2.7,5.3,4.4,8.8,4.4c0,0,0.1,0,0.1,0c5.7,0,11.3-0.6,16.6-1.6c5.4-1,10.4-2.4,14.8-4.3c4.5-1.8,8.5-4,12.1-6.4
		c3.7-2.6,7.2-5.7,10.3-9.4c0.7-0.9,1.4-1.7,2.1-2.5c2,2.4,5,3.9,8.4,3.9h2.1v2c0,6.1,4.9,11,11,11h5.2c6.1,0,11-4.9,11-11v-2h2.1
		c2,0,3.9-0.6,5.6-1.5c-0.1,0.5-0.1,1-0.1,1.5v6c0,6.1,4.9,11,11,11h27.8c1.3,0,2.6-0.2,3.8-0.7c0.6,0.5,1.3,0.9,2,1.2l4.5,2.1
		c1.5,0.7,3,1,4.6,1c1.3,0,2.6-0.2,3.9-0.7c0.1,0,0.2-0.1,0.4-0.1c0.7,0.1,1.5,0,2.3-0.1l4.8-0.6c0.7-0.1,1.3-0.2,2-0.4
		c0.4,0,0.8-0.1,1.3-0.1l4.3-0.7c1.9,1.5,4.2,2.4,6.8,2.4h5.4c2.2,0,4.3-0.7,6.1-1.8c1.7,1.2,3.8,1.8,6.1,1.8h5.5
		c2.1,0,4.1-0.6,5.8-1.7c-0.8-0.9-1.4-2-1.6-3.1C496.7,77.8,496.7,77,496.9,76.2z M52.4,21.5h7.3v-4.2h7.4v4.2h12.1v5.9H67.1v3.3
		h-7.4v-3.3h-7.3V21.5z M26.6,72.9c-1.1-0.9-3.4-2.6-4.7-3.4c2.2-2.4,4.1-5.9,5.2-9.3l5.6,1.5C31.3,65.7,28.9,70.1,26.6,72.9z
		 M41.8,75h-7.1V59.1H23.8v-5.6h10.9v-2.9H22.9v-5.4h7c-0.5-1.6-1.3-3.4-2.2-4.8l4.4-1.5h-8.4v-5.4H34c-0.4-0.9-0.7-1.9-1.1-2.7
		l5.4-1.4h-2.8v-2.1H23.5v-5.9h11.9v-4.2h7.4v4.2h7.4v5.9h-7.4v2.1h-2.5c0.6,1.2,1.3,2.7,1.9,4.1h9.6v5.4h-8.9l5.4,1.3
		c-0.8,1.8-1.6,3.5-2.2,5h6.8v5.4H41.8v2.9h10.3v5.6H41.8V75z M47,70.2c-0.9-2.2-2.7-5.7-4.2-8.2l4.7-2.7c1.7,2.6,3.6,5.7,4.5,7.9
		L47,70.2z M79.5,52.4h-6.3v22.8h-7V52.4h-4.9c-0.1,7.4-1.2,17-5.8,23c-1-1.3-3.8-3.9-5.1-4.7c3.9-5.6,4.2-13.4,4.2-19.7V34.4
		c6.8-1,14.4-2.7,18.9-4.6l5.4,5.3c-5.1,1.7-11.5,3.1-17.5,4v6.9h18.2V52.4z M89.5,20.3h16v5.4h-16V20.3z M137.7,75.5
		c-3.6-2.1-10.1-5.1-16.2-7.4l3.8-3.1h-17.6l5.4,2.5c-5.1,3.2-13.2,6.4-19.5,8.1c-1.2-1.4-3.9-4.2-5.5-5.4c6-1.1,12.7-3,17-5.2h-9
		V39.7H138v25.4h-9.1c5.7,2.1,11.9,4.6,15.5,6.4L137.7,75.5z M141.5,39.6c-7-0.9-12.4-2.9-16.4-6.3c-2.4,2.7-7.6,5.2-18,6.4
		c-0.5-1.2-1.5-2.7-2.5-4.1H88v-5.7h18.9v3.8c11.9-1.2,13.5-4.1,13.5-6.4v-0.9h-3.7c-1.3,2.1-2.8,3.9-4.4,5.4
		c-1.2-1.1-3.9-2.9-5.5-3.8c3.3-2.7,5.9-6.9,7.3-11.1l6.5,1.4c-0.3,0.9-0.7,1.9-1.1,2.7h17.7l1.1-0.3l5.1,1.6
		c-1.6,3.4-3.7,7.4-5.7,9.9l-5.7-2.1c0.7-1,1.5-2.3,2.2-3.6h-6.9v1.2v0.7c3.4,3.3,10,4.9,18.4,5.3C144.1,35.1,142.4,37.8,141.5,39.6
		z M145.8,57.9c-0.1,0-0.1,0-0.2,0v-0.8c0.2,0.4,0.4,0.7,0.6,1.1C146.1,58.1,146,58,145.8,57.9z M165.7,17.4l6.9,2.9
		c-4,5.7-10.3,11.9-16.1,15.6c-0.7-1.7-2.5-4.7-3.6-6.3C157.7,26.6,163.1,21.5,165.7,17.4z M168.5,75.5h-7.1V49.6
		c-1.9,1.9-3.7,3.6-5.6,5.1c-0.6-1.7-2.4-5.9-3.5-7.7c5.4-3.9,11.5-10,15-16l6.4,2.7c-1.5,2.6-3.2,5.2-5.2,7.7V75.5z M174.4,58.8
		l6.1-3.2c2.6,3.1,6.2,7.4,7.8,10.2l-6.5,3.7C180.4,66.6,177.1,62.1,174.4,58.8z M211,54.9h-7.6v12.9c0,3.7-0.8,5.5-3.4,6.6
		c-2.5,1.1-6.1,1.2-10.9,1.1c-0.3-2.1-1.4-4.9-2.3-6.9c3.1,0.2,6.7,0.2,7.7,0.1c1.1,0,1.3-0.2,1.3-1.1V54.9h-24.9v-6.7h24.9v-3.6
		h7.6v3.6h7.6V54.9z M211.2,31.2h-16.7v5.1h13.9V43h-35.2v-6.7h13.6v-5.1h-15.7v-6.8h15.7v-6.9h7.6v6.9h16.7V31.2z M238.1,41.1h6.1
		V43h8.4v-2.9h-12.1V19.3h30.9v20.9h-12.7V43h16v17.8c0,2.7-0.5,3.9-2.4,4.7c-1.7,0.7-4.4,0.8-8.2,0.8c-0.2-1.5-1-3.4-1.6-4.7
		c2.1,0.1,4.5,0.1,5.2,0.1c0.7,0,1-0.2,1-0.9V48.3h-10.2v4.9l2.9-0.2c-0.3-1-0.7-1.9-1-2.7l4.1-0.9c1.3,3.1,2.6,7.2,3,9.7l-4.4,1.1
		c-0.1-0.7-0.2-1.5-0.4-2.4c-6.1,0.7-12.1,1.2-16.9,1.7l-0.6-5.4c2.1-0.1,4.4-0.2,7-0.4v-5.3h-8v17.5h-6.1V48.3h-2.2V43h2.2V41.1z
		 M226.4,17.3c2.7,3,6.1,6.9,7.7,9.4l-5.8,3.9c-1.6-2.7-4.9-7-7.5-10.1L226.4,17.3z M275.3,73.9c-6.5,0.4-14.4,0.6-21.7,0.6
		c-11.6,0-18.8-1.2-23.6-7.9c-2,3.9-4.5,6.9-7.3,9.1c-0.9-1.5-3.4-4-4.8-4.9c5.1-3.6,8.5-9.9,10.3-18.2h-3.9c-1.5,0-3.3,0.4-3.9,0.9
		c-0.4-1.5-1.7-4.7-2.3-5.9c0.9-0.3,2-0.8,3.2-2.1c1.1-1.1,3.6-4.5,5.8-7.8h-7.9v-5.9h12.2l1-0.4l4.6,2c-2.3,3.4-6.2,9.2-9.4,13.4
		h3.6l1.1-0.2l3.1,1.3c-0.6,4.7-1.6,8.8-2.7,12.4c3.6,6.8,10.7,7.7,21.1,7.7c6.7,0,16.9-0.4,23.9-1.1
		C276.7,68.6,275.7,71.9,275.3,73.9z M293.9,75.6c-0.6-2.1-2-5.1-3.1-6.8c9-0.9,17.4-2.8,24.4-5.9c-2.4-2.1-6.1-4.7-9.2-6.6
		c-2.7,1.4-5.7,2.6-8.9,3.7c-0.9-1.7-3-4.5-4.6-5.7c12-3.6,20.5-9,25.5-14.4c-8.4,5.5-18.6,9.1-29,11.2c-0.7-1.9-2.1-4.7-3.4-6.4
		c7.3-1.2,14.6-3.2,21-6.2c-2.3-1.7-5.5-3.8-8.4-5.4c-2.2,1.2-4.6,2.2-7.2,3.2c-1.1-1.7-3.4-4.2-5-5.5c11.1-3.5,18.7-8.7,23-13.9
		l8.1,1.7c-0.9,1.1-1.9,2.1-3,3.2h12.5l1.2-0.3l4.7,2.7c-3.1,5.7-7.6,10.4-12.9,14.3l7.5,1.7c-1.2,1.4-2.5,2.8-3.9,4.1h11.2l1.2-0.3
		l5,2.6C333.2,65.3,315.3,72.7,293.9,75.6z M384.1,51.9h-12.6v13.2h-6.8V51.9H352v-6.6h12.6V32h6.8v13.3h12.6V51.9z M427.8,70.1H400
		v-7.4h9.9v-28h-8.4V29c4.6-0.9,7.8-2.1,10.7-3.9h6.8v37.6h8.7V70.1z M437.9,54.1h10.9V51h-9.6v-5.6h9.6v-2.7H439V19.2h26.4v23.5
		h-10.1v2.7h10V51h-10v3.1h10.9v5.6h-28.3V54.1z M441.6,74.6l-5.2-2.1c1.7-2.9,3.2-7.6,3.9-11.2l4.9,1.8
		C444.4,66.9,443.3,71.6,441.6,74.6z M451.8,73.4L447,74c0.1-3-0.1-7.5-0.6-10.9l4.5-0.5C451.5,66,451.8,70.4,451.8,73.4z
		 M455.1,73.4c-0.2-2.8-1.3-7.1-2.4-10.4l4.4-0.8c1.1,3.2,2.2,7.5,2.6,10.3L455.1,73.4z M495.1,37H483v9.6h10v28.7h-7.1v-2.2h-11.6
		v2.4h-6.7v-4.4l-4.6,1.8c-0.6-2.8-2.4-7-4.1-10.1l4.4-1.6c1.8,2.8,3.6,6.6,4.3,9.3v-24h8.2V17.4h7.2v12.8h12.1V37z"/>
	
		<linearGradient id="SVGID_00000016052505038289329380000012312649716840834214_" gradientUnits="userSpaceOnUse" x1="-18.5854" y1="62.3485" x2="509.0143" y2="-132.1037">
		<stop  offset="0" style="stop-color:#183785"/>
		<stop  offset="0.5657" style="stop-color:#29ABE2"/>
		<stop  offset="0.995" style="stop-color:#183785"/>
	</linearGradient>
	<path style="fill:url(#SVGID_00000016052505038289329380000012312649716840834214_);" d="M36.3,44.9l-0.7,0.2h4
		c0.7-1.9,1.6-4.4,2.1-6.3h-8.2C34.7,40.8,35.8,43.3,36.3,44.9z"/>
	<path class="st16" d="M549,68.3c-1.4-0.5-2.8-0.9-4.4-1.4c-0.9-0.3-1.9-0.5-2.8-0.7c-0.3-2.7-1.2-5.2-2-7.4
		c-0.8-2.1-1.4-3.9-1.1-4.7c0.5-1.4,0.9-2.7,1.3-4c0.4-1.2,0.8-2.4,1.3-3.7c0.1-0.3,0.3-0.5,0.4-0.8c1.6-3.1,4.7-9,2.2-11
		c-0.6-0.5-1.1-0.8-1.7-1.2c-2.7-1.6-5.2-1.7-7.5-0.9c-2.1,0.7-4,2.3-5.5,4.2c-0.7,0.9-1.3,1.8-1.9,2.7c-0.6,1.1-1.2,2.4-1.7,3.8
		c-0.5,1.3-0.9,2.7-1.3,4l0,0l0,0.1l0,0c-0.3,1.1-0.9,1.9-1.7,2.6c-1.7-1-3.4-2-5.3-2.8c-2-1-4-1.8-6-2.4l-0.2-0.1l-0.2,0
		c-2.4-0.2-4.4,0.5-5.9,1.8c-0.5,0.5-1,1-1.3,1.7c-0.1,0.1-0.1,0.2-0.2,0.3c-0.4,0.8-0.6,1.6-0.7,2.4c-0.1,0.9,0,1.9,0.4,2.9
		c-1.5,0.2-2.8,0.9-3.8,1.8c-0.6,0.6-1.2,1.2-1.5,2c-0.4,0.8-0.6,1.6-0.7,2.4c-0.2,1.7,0.3,3.4,1.6,5c-0.5,0.4-1,0.9-1.3,1.5
		c-0.5,0.7-0.8,1.5-0.9,2.3c-0.2,0.8-0.2,1.7,0,2.5c0.2,1.1,0.7,2.2,1.4,3.2c-0.4,0.7-0.7,1.4-0.8,2.1c-0.2,0.8-0.2,1.7,0,2.5
		c0.2,1.1,0.8,2.2,1.6,3.1c0.4,0.4,0.8,0.7,1.2,1.1l0.2,0.1l0.2,0.1c1.7,0.7,3.5,1.2,5.3,1.6c0.7,0.2,1.4,0.3,2.1,0.4
		c4.3,4.1,11.3,6.7,22.3,6.2c2.2,1.6,4.5,2.8,6.4,3.8c0.2,0.1,0.3,0.2,1.3,0.7l1.4,0.7l1.2-1c3.1-2.7,5.6-6.6,7.4-10.9
		c1.8-4.4,2.9-9.3,3-14.1l0-1.7L549,68.3z M505.4,48.9c0.1-0.2,0.3-0.4,0.4-0.6c0.3-0.4,0.6-0.7,1.1-1s0.9-0.5,1.3-0.7
		c0.5-0.2,1-0.3,1.6-0.3c0.3,0,0.6,0,0.9,0c0.2,0.1,0.4,0.1,0.5,0.2c0,0,0,0,0,0c3.6,1.2,7.3,3.1,10.7,5.1c3.5,2.4,1.7,7.7-2.1,7.8
		c0,0-0.1-0.1-0.1-0.1l-0.1-0.1c-1.7-1-4-2.1-6.4-3.1c-2.4-1-4.9-1.9-7-2.6c-0.2-0.1-0.5-0.2-0.7-0.2l-0.1,0
		c-0.2-0.4-0.4-0.7-0.5-1.1C504.6,51.1,504.8,49.9,505.4,48.9z M500.3,63.4c-3.1-3.5-0.2-8.4,4.6-7.9l0.3,0.1c0,0,0,0,0,0
		c3.8,1.2,9.9,3.6,13.3,5.6c3.8,2.6,1.5,8.5-2.9,7.8c-4.7-1-11.1-3-14.9-5.3c0,0,0,0,0,0C500.6,63.6,500.5,63.5,500.3,63.4z
		 M500.4,65.8c0.3,0.2,0.6,0.3,0.9,0.5c1.5,0.7,3.1,1.4,4.9,2.1c3,1.1,6.3,2,9,2.6l0.1,0c0.7,0.1,1.3,0.1,1.9,0
		c1.3,2.7-0.7,6.4-4.3,6.1c-3.8-0.5-8-1.4-11.5-2.7c0,0,0,0,0,0c-0.2-0.1-0.4-0.1-0.5-0.2C497.5,72,497.5,67.6,500.4,65.8z
		 M501.2,81.5C501.2,81.5,501.2,81.5,501.2,81.5c-0.1,0-0.3-0.1-0.4-0.1c-0.3-0.2-0.6-0.5-0.8-0.7c-1.4-1.5-1.7-3.6-0.9-5.2
		c0,0,0,0,0-0.1c0.2,0.2,0.5,0.4,0.7,0.5l0.1,0.1l0.1,0l0.2,0.1c1.9,0.8,4,1.4,6.2,1.9c2.1,0.5,4.3,0.9,6.3,1.2l0.1,0
		c0.8,0.1,1.6,0,2.3-0.2c0.4,2.3-1.2,5-4,4.9C507.7,83.4,504.2,82.7,501.2,81.5z M538.5,93.7c-2.3-1.2-5.3-2.7-8.1-4.7
		c-8.5,0.5-14.5-0.9-18.6-3.4c1.3-0.1,2.4-0.7,3.2-1.5c0.7-0.7,1.3-1.6,1.6-2.6c0.3-1,0.4-2,0.2-3c0-0.1-0.1-0.2-0.1-0.3
		c0.3-0.2,0.6-0.4,0.9-0.7c0.8-0.8,1.4-1.7,1.7-2.8c0.3-1.1,0.4-2.2,0.2-3.3l0,0c-0.1-0.4-0.2-0.7-0.3-1.1c0.3-0.2,0.6-0.4,0.9-0.6
		c0.9-0.7,1.5-1.6,1.9-2.7c0.4-1,0.6-2.2,0.4-3.3c-0.1-0.9-0.4-1.7-0.9-2.5c0.7-0.2,1.4-0.6,1.9-1c0.9-0.7,1.5-1.6,1.9-2.7
		c0.4-1,0.6-2.2,0.4-3.3c-0.1-0.6-0.3-1.3-0.6-1.9c-0.2-0.5-0.5-0.9-0.9-1.3c1-0.9,1.7-2.1,2.1-3.5c0.7-2.4,1.7-5.4,2.8-7.3
		c2.8-4.8,7.5-8.8,13.2-4.2c0.1,0,0.1,0.1,0.1,0.2c0,0,0,0,0,0c0.8,1.4-2.4,7.1-3.4,9.1c-1,2.8-1.7,5-2.7,7.8
		c-1.1,3.2,3.2,8.6,3.1,14.7c2.9,0.6,5.8,1.5,8.7,2.4C548,79.2,544.3,88.7,538.5,93.7z"/>
	<path class="st17" d="M536.5,53.2c1-2.8,1.7-5,2.7-7.8c1-1.9,4.2-7.7,3.4-9.1c-8.7-3.4-11.1,3.9-13.7,10.4c-1,2.4-2.2,4.4-3.6,5.8
		c0.3,0.6,0.5,1.2,0.6,1.9c0.2,1.1,0,2.2-0.4,3.3c-0.4,1-1.1,2-1.9,2.7c-0.6,0.5-1.2,0.8-1.9,1c0.5,0.8,0.8,1.6,0.9,2.5
		c0.2,1.1,0,2.2-0.4,3.3c-0.4,1-1.1,2-1.9,2.7c-0.3,0.2-0.6,0.4-0.9,0.6c0.1,0.3,0.3,0.7,0.3,1.1l0,0c0.2,1.1,0.2,2.2-0.2,3.3
		c-0.3,1-0.9,2-1.7,2.8c-0.3,0.2-0.6,0.5-0.9,0.7c0,0.1,0.1,0.2,0.1,0.3c0.2,1,0.1,2.1-0.2,3c-0.3,1-0.9,1.9-1.6,2.6
		c-0.8,0.8-1.9,1.4-3.2,1.5c4.1,2.5,10.1,3.9,18.6,3.4c2.8,2.1,5.8,3.5,8.1,4.7c5.8-5.1,9.5-14.6,9.7-23.3c-2.8-1-5.7-1.8-8.7-2.4
		C539.6,61.8,535.4,56.4,536.5,53.2z"/>
	<path class="st18" d="M528.8,46.7c2.6-6.4,5.1-13.8,13.7-10.4c0,0,0,0,0,0c0-0.1-0.1-0.1-0.1-0.2c-5.7-4.6-10.4-0.6-13.2,4.2
		c-1.1,1.9-2.1,4.9-2.8,7.3c-0.4,1.4-1.1,2.5-2.1,3.5c0.4,0.4,0.7,0.9,0.9,1.3C526.6,51.1,527.8,49.1,528.8,46.7z"/>
	<path class="st17" d="M499.9,80.6c0.2,0.3,0.5,0.5,0.8,0.7C500.4,81.2,500.1,80.9,499.9,80.6z"/>
	<path class="st17" d="M511.1,83.8c2.8,0.2,4.5-2.6,4-4.9c-0.7,0.2-1.5,0.3-2.3,0.2l-0.1,0c-2-0.3-4.2-0.7-6.3-1.2
		c-2.1-0.5-4.3-1.1-6.2-1.9L500,76c-0.8,1.8-0.5,3.9,1.2,5.5C504.2,82.7,507.7,83.4,511.1,83.8z"/>
	<path class="st18" d="M500,76L500,76l-0.2-0.1c-0.3-0.2-0.5-0.3-0.7-0.5c0,0,0,0,0,0.1c-0.8,1.6-0.5,3.7,0.9,5.2
		c0.2,0.3,0.5,0.5,0.8,0.7c0.2,0.1,0.3,0.1,0.5,0.2c0,0,0,0,0,0C499.5,79.9,499.2,77.8,500,76z"/>
	<path class="st17" d="M506.2,53.7c2,0.6,4.6,1.6,7,2.6c2.4,1,4.7,2.1,6.4,3.1l0.1,0.1c0,0,0.1,0.1,0.1,0.1c3.8-0.2,5.6-5.4,2.1-7.8
		c-3.3-2-7.1-3.9-10.7-5.1C507.2,46.9,505.3,50.1,506.2,53.7z"/>
	<path class="st17" d="M508.2,46.7c0.5-0.2,1-0.3,1.6-0.3C509.2,46.4,508.7,46.5,508.2,46.7z"/>
	<path class="st18" d="M505.4,53.4l0.1,0c0.2,0.1,0.5,0.1,0.7,0.2c-1-3.6,0.9-6.8,4.9-7.1c0,0,0,0,0,0c-0.2-0.1-0.4-0.1-0.5-0.2
		c-0.3,0-0.6,0-0.9,0c-0.6,0-1.1,0.1-1.6,0.3s-0.9,0.4-1.3,0.7s-0.8,0.6-1.1,1c-0.1,0.2-0.3,0.4-0.4,0.6c-0.6,1-0.8,2.2-0.5,3.4
		C505,52.7,505.2,53.1,505.4,53.4z"/>
	<path class="st17" d="M501.4,74.4c3.6,1.4,7.7,2.2,11.5,2.7c3.6,0.3,5.5-3.4,4.3-6.1c-0.6,0.1-1.2,0.1-1.9,0l-0.1,0
		c-2.7-0.6-5.9-1.5-9-2.6c-1.7-0.6-3.4-1.3-4.9-2.1C498.9,68.5,498.7,71.9,501.4,74.4z"/>
	<path class="st18" d="M500.9,74.2c0.2,0.1,0.4,0.1,0.5,0.2c0,0,0,0,0,0c-2.7-2.5-2.5-5.9-0.1-8.1c-0.3-0.2-0.6-0.3-0.9-0.5
		C497.5,67.6,497.5,72,500.9,74.2z"/>
	<path class="st17" d="M500.7,63.6c3.8,2.3,10.2,4.3,14.9,5.3c4.4,0.7,6.7-5.2,2.9-7.8c-3.4-2-9.5-4.4-13.3-5.6
		C501.6,56.6,499.1,59.1,500.7,63.6z"/>
	<path class="st18" d="M500.7,63.6c-1.6-4.5,0.9-7,4.5-8.1c0,0,0,0,0,0l-0.3-0.1c-4.8-0.5-7.7,4.4-4.6,7.9
		C500.5,63.5,500.6,63.6,500.7,63.6C500.7,63.6,500.7,63.6,500.7,63.6z"/>
	<polygon class="st19" points="521.1,16.2 519.7,32.1 532.2,21.7 	"/>
	<polygon class="st20" points="517.2,23.5 509.2,25.5 515.3,34.1 	"/>
	<path class="st18" d="M61.3,39.1c6.1-0.9,12.5-2.3,17.5-4l-5.4-5.3c-4.6,1.8-12.1,3.6-18.9,4.6v16.7c0,6.2-0.3,14.1-4.2,19.7
		c1.3,0.9,4.1,3.4,5.1,4.7c4.6-6,5.7-15.6,5.8-23h4.9v22.8h7V52.4h6.3v-6.4H61.3V39.1z"/>
	<path class="st18" d="M52.1,53.6H41.8v-2.9h10.9v-5.4h-6.8c0.7-1.5,1.4-3.2,2.2-5l-5.4-1.3h8.9v-5.4h-9.6c-0.6-1.4-1.2-2.8-1.9-4.1
		h2.5v-2.1h7.4v-5.9h-7.4v-4.2h-7.4v4.2H23.5v5.9h11.9v2.1h2.8l-5.4,1.4c0.4,0.8,0.7,1.7,1.1,2.7H23.6v5.4H32l-4.4,1.5
		c0.9,1.4,1.7,3.2,2.2,4.8h-7v5.4h11.9v2.9H23.8v5.6h10.9V75h7.1V59.1h10.3V53.6z M39.6,45.2h-4l0.7-0.2c-0.4-1.7-1.6-4.2-2.9-6.1
		h8.2C41.2,40.8,40.3,43.3,39.6,45.2z"/>
	<path class="st18" d="M47.5,59.3L42.7,62c1.6,2.5,3.4,6.1,4.2,8.2l5-3.1C51,65.1,49.2,61.9,47.5,59.3z"/>
	<polygon class="st18" points="59.7,30.7 67.1,30.7 67.1,27.3 79.1,27.3 79.1,21.5 67.1,21.5 67.1,17.2 59.7,17.2 59.7,21.5 
		52.4,21.5 52.4,27.3 59.7,27.3 	"/>
	<path class="st18" d="M21.9,69.4c1.4,0.8,3.7,2.5,4.7,3.4c2.3-2.7,4.7-7.1,6.1-11.2L27,60.1C25.9,63.5,24.1,67.1,21.9,69.4z"/>
	<path class="st18" d="M127.2,27.7v-1.2h6.9c-0.7,1.3-1.5,2.6-2.2,3.6l5.7,2.1c2-2.5,4.1-6.4,5.7-9.9l-5.1-1.6l-1.1,0.3h-17.7
		c0.4-0.9,0.7-1.8,1.1-2.7l-6.5-1.4c-1.4,4.2-4,8.4-7.3,11.1c1.6,0.9,4.3,2.7,5.5,3.8c1.6-1.4,3.1-3.3,4.4-5.4h3.7v0.9
		c0,2.3-1.6,5.1-13.5,6.4v-3.8H88v5.7h16.5c1,1.3,2,2.9,2.5,4.1c10.5-1.2,15.7-3.6,18-6.4c3.9,3.4,9.4,5.4,16.4,6.3
		c0.9-1.8,2.6-4.5,4.1-5.9c-8.4-0.4-15-2-18.4-5.3V27.7z"/>
	<path class="st18" d="M138,65.1V39.7H96.2v25.4h9c-4.4,2.2-11.1,4.1-17,5.2c1.6,1.2,4.2,4,5.5,5.4c6.3-1.7,14.4-4.9,19.5-8.1
		l-5.4-2.5h17.6l-3.8,3.1c6.2,2.2,12.7,5.3,16.2,7.4l6.7-4c-3.7-1.8-9.8-4.3-15.5-6.4H138z M103.4,44.1h27v2.7h-27V44.1z M103.4,51
		h27v2.7h-27V51z M103.4,60.7v-2.8h27v2.8H103.4z"/>
	<rect x="89.5" y="20.3" class="st18" width="16" height="5.4"/>
	<path class="st18" d="M203.4,44.6h-7.6v3.6h-24.9v6.7h24.9v12.7c0,0.8-0.2,1.1-1.3,1.1c-1,0.1-4.6,0.1-7.7-0.1c0.9,2,2,4.9,2.3,6.9
		c4.9,0.1,8.4-0.1,10.9-1.1c2.6-1.1,3.4-2.9,3.4-6.6V54.9h7.6v-6.7h-7.6V44.6z"/>
	<path class="st18" d="M180.6,55.6l-6.1,3.2c2.6,3.2,5.9,7.8,7.4,10.7l6.5-3.7C186.7,63.1,183.2,58.7,180.6,55.6z"/>
	<path class="st18" d="M172.6,20.2l-6.9-2.9c-2.6,4.1-8,9.2-12.8,12.2c1.1,1.6,2.9,4.6,3.6,6.3C162.3,32.1,168.6,26,172.6,20.2z"/>
	<path class="st18" d="M167.3,31c-3.5,6.1-9.6,12.2-15,16c1.1,1.8,2.9,6,3.5,7.7c1.9-1.5,3.7-3.2,5.6-5.1v25.9h7.1V41.4
		c1.9-2.5,3.7-5.1,5.2-7.7L167.3,31z"/>
	<polygon class="st18" points="194.5,17.5 186.9,17.5 186.9,24.4 171.2,24.4 171.2,31.2 186.9,31.2 186.9,36.3 173.3,36.3 173.3,43 
		208.5,43 208.5,36.3 194.5,36.3 194.5,31.2 211.2,31.2 211.2,24.4 194.5,24.4 	"/>
	<path class="st18" d="M232.7,60.4c1.2-3.6,2.1-7.7,2.7-12.4l-3.1-1.3l-1.1,0.2h-3.6c3.2-4.2,7.1-10,9.4-13.4l-4.6-2l-1,0.4h-12.2
		v5.9h7.9c-2.2,3.3-4.7,6.7-5.8,7.8c-1.2,1.2-2.2,1.7-3.2,2.1c0.6,1.2,1.9,4.4,2.3,5.9c0.6-0.5,2.4-0.9,3.9-0.9h3.9
		c-1.8,8.4-5.2,14.6-10.3,18.2c1.4,0.9,3.9,3.4,4.8,4.9c2.8-2.2,5.3-5.2,7.3-9.1c4.8,6.6,12.1,7.9,23.6,7.9c7.3,0,15.2-0.2,21.7-0.6
		c0.4-2.1,1.3-5.4,2.4-6.9c-7.1,0.7-17.2,1.1-23.9,1.1C243.4,68.1,236.3,67.2,232.7,60.4z"/>
	<path class="st18" d="M234.2,26.7c-1.7-2.6-5-6.4-7.7-9.4l-5.6,3.3c2.6,3.1,5.9,7.4,7.5,10.1L234.2,26.7z"/>
	<path class="st18" d="M235.9,48.3h2.2v17.5h6.1V48.3h8v5.3c-2.6,0.2-4.9,0.3-7,0.4l0.6,5.4c4.7-0.5,10.7-1.1,16.9-1.7
		c0.2,0.9,0.4,1.7,0.4,2.4l4.4-1.1c-0.4-2.5-1.7-6.6-3-9.7l-4.1,0.9c0.3,0.8,0.7,1.7,1,2.7l-2.9,0.2v-4.9h10.2v12.5
		c0,0.7-0.2,0.9-1,0.9c-0.7,0-3.1,0-5.2-0.1c0.6,1.3,1.4,3.2,1.6,4.7c3.7,0,6.4-0.1,8.2-0.8c1.9-0.8,2.4-2.1,2.4-4.7V43h-16v-2.9
		h12.7V19.3h-30.9v20.9h12.1V43h-8.4v-1.9h-6.1V43h-2.2V48.3z M258.7,24.2h6.4v3.1h-6.4V24.2z M258.7,32h6.4v3.1h-6.4V32z
		 M246.5,24.2h6.1v3.1h-6.1V24.2z M246.5,35.1V32h6.1v3.1H246.5z"/>
	<path class="st20" d="M334.5,44.5h-11.2c1.4-1.3,2.7-2.7,3.9-4.1l-7.5-1.7c5.3-3.9,9.8-8.6,12.9-14.3l-4.7-2.7l-1.2,0.3h-12.5
		c1.1-1.1,2.1-2.1,3-3.2L309,17c-4.3,5.1-12,10.4-23,13.9c1.6,1.2,3.9,3.8,5,5.5c2.6-1,4.9-2.1,7.2-3.2c2.9,1.6,6.1,3.6,8.4,5.4
		c-6.4,2.9-13.7,5-21,6.2c1.3,1.6,2.7,4.5,3.4,6.4c10.4-2.1,20.6-5.7,29-11.2c-5,5.4-13.5,10.8-25.5,14.4c1.6,1.2,3.7,4,4.6,5.7
		c3.2-1.1,6.2-2.4,8.9-3.7c3.1,1.9,6.8,4.4,9.2,6.6c-7,3.1-15.4,5-24.4,5.9c1.1,1.7,2.6,4.7,3.1,6.8c21.4-2.9,39.3-10.3,46.9-28.8
		l-5-2.6L334.5,44.5z M313,35.1c-2.1-1.7-5.5-3.8-8.6-5.4c0.8-0.6,1.6-1.1,2.3-1.6h14.9C319.3,30.7,316.4,33,313,35.1z M321.8,59.2
		c-2.2-2.1-6-4.5-9.4-6.4c1.2-0.7,2.2-1.4,3.3-2.1h14.7C328.2,54.1,325.3,56.9,321.8,59.2z"/>
	<path class="st20" d="M419.1,25.1h-6.8c-2.9,1.8-6.1,3-10.7,3.9v5.7h8.4v28H400v7.4h27.8v-7.4h-8.7V25.1z"/>
	<path class="st20" d="M466.2,54.1h-10.9V51h10v-5.6h-10v-2.7h10.1V19.2H439v23.5h9.7v2.7h-9.6V51h9.6v3.1h-10.9v5.6h28.3V54.1z
		 M454.3,24.2h5.4v2.7l-3-1.1c-0.4,2.4-1.5,6.1-2.4,8.6V24.2z M449.8,37.7h-5.2V27.2c0.9,2.7,1.5,6.2,1.6,8.7l3.2-1.1
		c-0.2-2.4-1-6.1-1.9-8.9l-2.9,0.9v-2.6h5.2V37.7z M454.3,35l2.6,1c0.8-1.7,1.7-4.5,2.7-7.1v8.8h-5.4V35z"/>
	<path class="st20" d="M446.4,63.1c0.5,3.4,0.7,7.9,0.6,10.9l4.7-0.6c0.1-3-0.2-7.4-0.9-10.9L446.4,63.1z"/>
	<path class="st20" d="M436.4,72.5l5.2,2.1c1.7-3,2.9-7.7,3.7-11.6l-4.9-1.8C439.6,64.9,438.1,69.6,436.4,72.5z"/>
	<path class="st20" d="M452.7,62.9c1.1,3.3,2.2,7.6,2.4,10.4l4.6-0.9c-0.3-2.8-1.4-7.1-2.6-10.3L452.7,62.9z"/>
	<path class="st20" d="M483,17.4h-7.2v29.2h-8.2v24c-0.7-2.7-2.5-6.5-4.3-9.3l-4.4,1.6c1.7,3.1,3.5,7.3,4.1,10.1l4.6-1.8v4.4h6.7
		v-2.4h11.6v2.2h7.1V46.6h-10V37h12.1v-6.9H483V17.4z M485.9,53.3v13h-11.6v-13H485.9z"/>
	<polygon class="st20" points="371.4,32 364.6,32 364.6,45.3 352,45.3 352,51.9 364.6,51.9 364.6,65.1 371.4,65.1 371.4,51.9 
		384.1,51.9 384.1,45.3 371.4,45.3 	"/>
</g>
</svg>
